/summon minecraft:villager ~ ~0.5 ~ {CustomName:"\"人口贩子\"",
ActiveEffects:[{Id:10,Amplifier:254,Duration:9999999}],
ArmorItems:[{},{},{id:"minecraft:turtle_helmet",Count:1b,tag:{Enchantments:[{id:"minecraft:thorns",lvl:999999},{id:"minecraft:protection",lvl:999999}]}},{}],
ArmorDropChances:[-1f,-1f,-1f,-1f],
VillagerData:{profession:fletcher,level:5,type:swamp},NoAI:1,
Rotation:[90f,0f],
Offers:{Recipes:[

{maxUses:99999999,buy:{id:"bat_spawn_egg",Count:1b},sell:{id:"minecraft:villager_spawn_egg",Count:1b,tag:{Damage:1,display:{Name:"\"冠位图书管理员\""},
EntityTag:{NoAI:1b,HandItems:[{id:"trident",Count:1b,tag:{Enchantments:[{id:impaling,lvl:10}]}},{}],HandDropChances:[0,0],
ArmorItems:[{},{},{},{id:"minecraft:player_head",Count:1b,tag:{SkullOwner:"YibaczZ"}}],
VillagerData:{type:"savanna",profession:"cartographer",lvl:5},Offers:{Recipes:[
{buy:{id:paper,Count:24},sell:{id:emerald,Count:1},maxUses:9999999},
{buy:{id:ink_sac,Count:5},sell:{id:emerald,Count:1},maxUses:9999999},
{buy:{id:writable_book,Count:1},sell:{id:emerald,Count:1},maxUses:9999999},
{buy:{id:emerald,Count:9},sell:{id:bookshelf,Count:1},maxUses:9999999},
{buy:{id:emerald,Count:1},sell:{id:lantern,Count:4},maxUses:9999999},
{buy:{id:emerald,Count:1},sell:{id:glass,Count:4},maxUses:9999999},
{buy:{id:emerald,Count:5},sell:{id:clock,Count:1},maxUses:9999999},
{buy:{id:emerald,Count:4},sell:{id:compass,Count:1},maxUses:9999999},
{buy:{id:emerald,Count:20},sell:{id:name_tag,Count:1},maxUses:9999999},
{buy:{id:emerald,Count:14},buyB:{id:book,Count:1},sell:{id:enchanted_book,Count:1,tag:{StoredEnchantments:[{id:mending,lvl:1}]}},maxUses:9999999},
{buy:{id:emerald,Count:7},buyB:{id:book,Count:1},sell:{id:enchanted_book,Count:1,tag:{StoredEnchantments:[{id:silk_touch,lvl:1}]}},maxUses:9999999},
{buy:{id:emerald,Count:12},buyB:{id:book,Count:1},sell:{id:enchanted_book,Count:1,tag:{StoredEnchantments:[{id:fortune,lvl:3}]}},maxUses:9999999},
{buy:{id:emerald,Count:16},buyB:{id:book,Count:1},sell:{id:enchanted_book,Count:1,tag:{StoredEnchantments:[{id:looting,lvl:3}]}},maxUses:9999999},
{buy:{id:emerald,Count:15},buyB:{id:book,Count:1},sell:{id:enchanted_book,Count:1,tag:{StoredEnchantments:[{id:efficiency,lvl:4}]}},maxUses:9999999},
{buy:{id:emerald,Count:32},buyB:{id:book,Count:1},sell:{id:enchanted_book,Count:1,tag:{StoredEnchantments:[{id:efficiency,lvl:5}]}},maxUses:9999999},
{buy:{id:emerald,Count:62},buyB:{id:book,Count:1},sell:{id:enchanted_book,Count:1,tag:{StoredEnchantments:[{id:sharpness,lvl:5}]}},maxUses:9999999},
{buy:{id:emerald,Count:27},buyB:{id:book,Count:1},sell:{id:enchanted_book,Count:1,tag:{StoredEnchantments:[{id:blast_protection,lvl:4}]}},maxUses:9999999},
{buy:{id:emerald,Count:24},buyB:{id:book,Count:1},sell:{id:enchanted_book,Count:1,tag:{StoredEnchantments:[{id:feather_falling,lvl:4}]}},maxUses:9999999},
{buy:{id:emerald,Count:21},buyB:{id:book,Count:1},sell:{id:enchanted_book,Count:1,tag:{StoredEnchantments:[{id:fire_protection,lvl:4}]}},maxUses:9999999},
{buy:{id:emerald,Count:39},buyB:{id:book,Count:1},sell:{id:enchanted_book,Count:1,tag:{StoredEnchantments:[{id:riptide,lvl:3}]}},maxUses:9999999},
{buy:{id:emerald,Count:59},buyB:{id:book,Count:1},sell:{id:enchanted_book,Count:1,tag:{StoredEnchantments:[{id:bane_of_arthropods,lvl:5}]}},maxUses:9999999},
{buy:{id:emerald,Count:9},buyB:{id:book,Count:1},sell:{id:enchanted_book,Count:1,tag:{StoredEnchantments:[{id:channeling,lvl:1}]}},maxUses:9999999},
{buy:{id:emerald,Count:7},buyB:{id:book,Count:1},sell:{id:enchanted_book,Count:1,tag:{StoredEnchantments:[{id:multishot,lvl:1}]}},maxUses:9999999},
{buy:{id:emerald,Count:7},buyB:{id:book,Count:1},sell:{id:enchanted_book,Count:1,tag:{StoredEnchantments:[{id:flame,lvl:1}]}},maxUses:9999999},
{buy:{id:emerald,Count:8},buyB:{id:book,Count:1},sell:{id:enchanted_book,Count:1,tag:{StoredEnchantments:[{id:aqua_affinity,lvl:1}]}},maxUses:9999999},
{buy:{id:emerald,Count:29},buyB:{id:book,Count:1},sell:{id:enchanted_book,Count:1,tag:{StoredEnchantments:[{id:quick_charge,lvl:3}]}},maxUses:9999999},
{buy:{id:emerald,Count:14},buyB:{id:book,Count:1},sell:{id:enchanted_book,Count:1,tag:{StoredEnchantments:[{id:vanishing_curse,lvl:1}]}},maxUses:9999999},
{buy:{id:emerald,Count:12},buyB:{id:book,Count:1},sell:{id:enchanted_book,Count:1,tag:{StoredEnchantments:[{id:binding_curse,lvl:1}]}},maxUses:9999999},
{buy:{id:emerald,Count:51},buyB:{id:book,Count:1},sell:{id:enchanted_book,Count:1,tag:{StoredEnchantments:[{id:impaling,lvl:4}]}},maxUses:9999999},
{buy:{id:emerald,Count:31},buyB:{id:book,Count:1},sell:{id:enchanted_book,Count:1,tag:{StoredEnchantments:[{id:impaling,lvl:5}]}},maxUses:9999999},
{buy:{id:emerald,Count:18},buyB:{id:book,Count:1},sell:{id:enchanted_book,Count:1,tag:{StoredEnchantments:[{id:frost_walker,lvl:2}]}},maxUses:9999999},
{buy:{id:emerald,Count:11},buyB:{id:book,Count:1},sell:{id:enchanted_book,Count:1,tag:{StoredEnchantments:[{id:infinity,lvl:1}]}},maxUses:9999999},
{buy:{id:emerald,Count:42},buyB:{id:book,Count:1},sell:{id:enchanted_book,Count:1,tag:{StoredEnchantments:[{id:depth_strider,lvl:3}]}},maxUses:9999999},
{buy:{id:emerald,Count:28},buyB:{id:book,Count:1},sell:{id:enchanted_book,Count:1,tag:{StoredEnchantments:[{id:smite,lvl:5}]}},maxUses:9999999},
{buy:{id:emerald,Count:18},buyB:{id:book,Count:1},sell:{id:enchanted_book,Count:1,tag:{StoredEnchantments:[{id:frost_walker,lvl:1}]}},maxUses:9999999},
{buy:{id:emerald,Count:32},buyB:{id:book,Count:1},sell:{id:enchanted_book,Count:1,tag:{StoredEnchantments:[{id:thorns,lvl:3}]}},maxUses:9999999},
{buy:{id:emerald,Count:18},buyB:{id:book,Count:1},sell:{id:enchanted_book,Count:1,tag:{StoredEnchantments:[{id:fire_aspect,lvl:2}]}},maxUses:9999999},
{buy:{id:emerald,Count:21},buyB:{id:book,Count:1},sell:{id:enchanted_book,Count:1,tag:{StoredEnchantments:[{id:unbreaking,lvl:3}]}},maxUses:9999999},
{buy:{id:emerald,Count:32},buyB:{id:book,Count:1},sell:{id:enchanted_book,Count:1,tag:{StoredEnchantments:[{id:protection,lvl:4}]}},maxUses:9999999},
{buy:{id:emerald,Count:31},buyB:{id:book,Count:1},sell:{id:enchanted_book,Count:1,tag:{StoredEnchantments:[{id:sweeping,lvl:3}], display: {Name: "\"调查兵团的横扫3\""}}},maxUses:9999999},
{buy:{id:emerald,Count:23},buyB:{id:book,Count:1},sell:{id:enchanted_book,Count:1,tag:{StoredEnchantments:[{id:respiration,lvl:3}]}},maxUses:9999999},
{buy:{id:emerald,Count:32},buyB:{id:book,Count:1},sell:{id:enchanted_book,Count:1,tag:{StoredEnchantments:[{id:projectile_protection,lvl:4}]}},maxUses:9999999}
]},id:"minecraft:villager"}}}},

{maxUses:99999999,buy:{id:"bat_spawn_egg",Count:1b},sell:{id:"minecraft:villager_spawn_egg",Count:1b,tag:{Damage:1,display:{Name:"\"冠位盔甲武器工具匠\""},
EntityTag:{NoAI:1b,HandItems:[{id:"beacon",Count:1b},{}],HandDropChances:[1f,0.0f],
VillagerData:{type:"savanna",profession:"armorer",lvl:5},Offers:{Recipes:[
{buy:{id:emerald,Count:1},sell:{id:chainmail_helmet,Count:1},maxUses:9999999},
{buy:{id:emerald,Count:4},sell:{id:chainmail_chestplate,Count:1},maxUses:9999999},
{buy:{id:emerald,Count:3},sell:{id:chainmail_leggings,Count:1},maxUses:9999999},
{buy:{id:emerald,Count:1},sell:{id:chainmail_boots,Count:1},maxUses:9999999},

{buy:{id:emerald,Count:5},sell:{id:iron_helmet,Count:1},maxUses:9999999},
{buy:{id:emerald,Count:9},sell:{id:iron_chestplate,Count:1},maxUses:9999999},
{buy:{id:emerald,Count:7},sell:{id:iron_leggings,Count:1},maxUses:9999999},
{buy:{id:emerald,Count:4},sell:{id:iron_boots,Count:1},maxUses:9999999},

{buy:{id:emerald,Count:27},sell:{id:diamond_pickaxe,Count:1,tag:{Enchantments:[{id:unbreaking,lvl:2}]}},maxUses:9999999},
{buy:{id:emerald,Count:27},sell:{id:diamond_axe,Count:1,tag:{Enchantments:[{id:unbreaking,lvl:2}]}},maxUses:9999999},
{buy:{id:emerald,Count:20},sell:{id:diamond_sword,Count:1,tag:{Enchantments:[{id:sharpness,lvl:2},{id:knockback,lvl:1},{id:fire_aspect,lvl:1}]}},maxUses:9999999},
{buy:{id:emerald,Count:4},sell:{id:diamond_hoe,Count:1},maxUses:9999999},
{buy:{id:emerald,Count:11},sell:{id:diamond_shovel,Count:1,tag:{Enchantments:[{id:efficiency,lvl:1}]}},maxUses:9999999},

{buy:{id:emerald,Count:16},sell:{id:diamond_helmet,Count:1,tag:{Enchantments:[{id:blast_protection,lvl:1},{id:aqua_affinity,lvl:1}]}},maxUses:9999999},
{buy:{id:emerald,Count:22},sell:{id:diamond_chestplate,Count:1,tag:{Enchantments:[{id:protection,lvl:1}]}},maxUses:9999999},
{buy:{id:emerald,Count:22},sell:{id:diamond_leggings,Count:1,tag:{Enchantments:[{id:fire_protection,lvl:1}]}},maxUses:9999999},
{buy:{id:emerald,Count:31},sell:{id:diamond_leggings,Count:1,tag:{Enchantments:[{id:protection,lvl:2},{id:unbreaking,lvl:3}]}},maxUses:9999999},
{buy:{id:emerald,Count:22},sell:{id:diamond_boots,Count:1,tag:{Enchantments:[{id:fire_protection,lvl:2},{id:feather_falling,lvl:3}]}},maxUses:9999999},

{buy:{id:emerald,Count:36},sell:{id:bell,Count:1},maxUses:9999999}
]},id:"minecraft:villager"}}}},

{maxUses:99999999,buy:{id:"bat_spawn_egg",Count:1b},sell:{id:"minecraft:villager_spawn_egg",Count:1b,tag:{Damage:1,display:{Name:"\"冠位农民\""},
EntityTag:{NoAI:1b,HandItems:[{id:"poisonous_potato",Count:3},{}],HandDropChances:[1f,0.0f],
VillagerData:{type:"savanna",profession:"farmer",lvl:5},Offers:{Recipes:[
{buy:{id:potato,Count:26},sell:{id:emerald,Count:1},maxUses:9999999},
{buy:{id:carrot,Count:22},sell:{id:emerald,Count:1},maxUses:9999999},
{buy:{id:pumpkin,Count:6},sell:{id:emerald,Count:1},maxUses:9999999},
{buy:{id:melon,Count:4},sell:{id:emerald,Count:1},maxUses:9999999},
{buy:{id:wheat,Count:20},sell:{id:emerald,Count:1},maxUses:9999999},
{buy:{id:beetroot,Count:15},sell:{id:emerald,Count:1},maxUses:9999999},
{buy:{id:emerald,Count:1},sell:{id:apple,Count:4},maxUses:9999999},
{buy:{id:emerald,Count:3},sell:{id:cookie,Count:18},maxUses:9999999},
{buy:{id:emerald,Count:1},sell:{id:cake,Count:1},maxUses:9999999},
{buy:{id:emerald,Count:3},sell:{id:golden_carrot,Count:3},maxUses:9999999},
{buy:{id:emerald,Count:4},sell:{id:glistering_melon_slice,Count:3},maxUses:9999999},
{buy:{id:emerald,Count:1},sell:{id:pumpkin_pie,Count:4},maxUses:9999999},
{buy:{id:emerald,Count:1},sell:{id:bread,Count:6},maxUses:9999999}
]},id:"minecraft:villager"}}}},

{maxUses:99999999,buy:{id:"bat_spawn_egg",Count:1b},sell:{id:"minecraft:villager_spawn_egg",Count:1b,tag:{Damage:1,display:{Name:"\"冠位渔夫\""},
EntityTag:{NoAI:1b,HandItems:[{id:"pufferfish_bucket",Count:1b},{}],HandDropChances:[1f,0.0f],
VillagerData:{type:"savanna",profession:"fisherman",lvl:5},Offers:{Recipes:[
{buy:{id:cod,Count:15},sell:{id:emerald,Count:1},maxUses:9999999},
{buy:{id:salmon,Count:13},sell:{id:emerald,Count:1},maxUses:9999999},
{buy:{id:string,Count:13},sell:{id:emerald,Count:1},maxUses:9999999},
{buy:{id:coal,Count:10},sell:{id:emerald,Count:1},maxUses:9999999},
{buy:{id:spruce_boat,Count:1},sell:{id:emerald,Count:1},maxUses:9999999},
{buy:{id:birch_boat,Count:1},sell:{id:emerald,Count:1},maxUses:9999999},
{buy:{id:oak_boat,Count:1},sell:{id:emerald,Count:1},maxUses:9999999},
{buy:{id:pufferfish,Count:4},sell:{id:emerald,Count:1},maxUses:9999999},
{buy:{id:tropical_fish,Count:6},sell:{id:emerald,Count:1},maxUses:9999999},
{buy:{id:emerald,Count:3},sell:{id:cod_bucket,Count:1},maxUses:9999999},
{buy:{id:emerald,Count:2},sell:{id:campfire,Count:1},maxUses:9999999}
]},id:"minecraft:villager"}}}},

{maxUses:99999999,buy:{id:"bat_spawn_egg",Count:1b},sell:{id:"minecraft:villager_spawn_egg",Count:1b,tag:{Damage:1,display:{Name:"\"冠位制箭牧羊阿拉什\""},
EntityTag:{NoAI:1b,HandItems:[{id:"tipped_arrow",tag:{Potion:strength},Count:1},{}],HandDropChances:[0,0],
ArmorItems:[{},{},{},{id:"minecraft:player_head",Count:1b,tag:{SkullOwner:"CanpiDaDa"}}],
VillagerData:{type:"taiga",profession:"fletcher",lvl:5},Offers:{Recipes:[
{buy:{id:string,Count:13},sell:{id:emerald,Count:1},maxUses:9999999},
{buy:{id:flint,Count:25},sell:{id:emerald,Count:1},maxUses:9999999},
{buy:{id:feather,Count:23},sell:{id:emerald,Count:1},maxUses:9999999},
{buy:{id:stick,Count:32},sell:{id:emerald,Count:1},maxUses:9999999},
{buy:{id:leather,Count:6},sell:{id:emerald,Count:1},maxUses:9999999},
{buy:{id:emerald,Count:2},sell:{id:crossbow,Count:1},maxUses:9999999},
{buy:{id:emerald,Count:1},sell:{id:arrow,Count:16},maxUses:9999999},
{buy:{id:emerald,Count:1},buyB:{id:gravel,Count:10},sell:{id:flint,Count:10},maxUses:9999999},
{buy:{id:emerald,Count:2},buyB:{id:arrow,Count:5},sell:{id:tipped_arrow,Count:5,tag:{Potion:strong_regeneration}},maxUses:9999999},
{buy:{id:emerald,Count:2},buyB:{id:arrow,Count:5},sell:{id:tipped_arrow,Count:5,tag:{Potion:strength}},maxUses:9999999},
{buy:{id:emerald,Count:2},buyB:{id:arrow,Count:5},sell:{id:tipped_arrow,Count:5,tag:{Potion:strong_harming}},maxUses:9999999},
{buy:{id:emerald,Count:2},buyB:{id:arrow,Count:5},sell:{id:tipped_arrow,Count:5,tag:{Potion:strong_poison}},maxUses:9999999},

{buy:{id:white_dye,Count:12},sell:{id:emerald,Count:1},maxUses:9999999},
{buy:{id:red_dye,Count:12},sell:{id:emerald,Count:1},maxUses:9999999},
{buy:{id:green_dye,Count:12},sell:{id:emerald,Count:1},maxUses:9999999},
{buy:{id:white_wool,Count:18},sell:{id:emerald,Count:1},maxUses:9999999},
{buy:{id:emerald,Count:2},sell:{id:painting,Count:3},maxUses:9999999}
]},id:"minecraft:villager"}}}},

{maxUses:99999999,buy:{id:"bat_spawn_egg",Count:1b},sell:{id:"minecraft:villager_spawn_egg",Count:1b,tag:{Damage:1,display:{Name:"\"铁路售票员\""},
EntityTag:{NoAI:1b,HandItems:[{id:"poisonous_potato",Count:3},{}],HandDropChances:[1f,0.0f],
VillagerData:{type:"savanna",profession:"leatherworker",lvl:5},Offers:{Recipes:[
{buy: {id:saddle,Count:1}, buyB: {id:saddle,Count:1}, sell:{id:minecart,Count:1},maxUses:9999999},
{buy:{id:emerald,Count:2},sell:{id:minecart,Count:1},maxUses:9999999},
{buy:{id:minecart,Count:1},sell:{id:rabbit_stew,Count:1, tag:{display:{Name:"\"狗肉煲\""}}},maxUses:9999999},
]},id:"minecraft:villager"}}}},

{maxUses:99999999,buy:{id:"bat_spawn_egg",Count:1b},sell:{id:"minecraft:wandering_trader_spawn_egg",Count:1b,tag:{Damage:1,display:{Name:"\"体验用流浪商人\""},
EntityTag:{NoAI:0,HandItems:[{id:"grass_block",Count:64},{}],HandDropChances:[1f,0.0f],
Offers:{Recipes:[
{buy:{id:stick,Count:32},sell:{id:emerald,Count:1},maxUses:9999999}
]},
DespawnDelay:99999999999,
WanderTarget: {X:302, Y:73, Z:118},
id:"wandering_trader"}}}}
]}}
